service,is_common,service_group,fare,unit,upd_month,upd_year
Содержание и текущий ремонт,false,УК,39.51,м2,8,2023
Электроэнергия,true,Электроэнергия,6,кВт * ч,8,2023
Обращение с ТКО,false,УК,434.60,м3,8,2023
Охрана,false,УК,4,м2,8,2023
Видеонаблюдение - монтаж,false,УК,1260.13,кв,8,2023
Холодная вода,true,Водоснабжение,33.36,м3,10,2023
Отведение сточных вод,true,Канализация,30.14,м3,10,2023
Видеонаблюдение,false,УК,5.64,м2,10,2023
Холодная вода,true,Водоснабжение,27.02,м3,2,2024
Обращение с ТКО,false,УК,17.73,м2,6,2024
Электроэнергия,true,Электроэнергия,6.53,кВт * ч,7,2024
Холодная вода,true,Водоснабжение,30.94,м3,7,2024
Отведение сточных вод,true,Канализация,34.51,м3,7,2024