{
    "categories": [
        {
            "id": 3,
            "name": "Graphics \u0026 Design",
            "subcategories": [
                {
                    "name": "Logo Design",
                    "url": "/categories/graphics-design/creative-logo-design",
                    "id": 49
                },
                {
                    "name": "Brand Style Guides",
                    "url": "/categories/graphics-design/brand-style-guides",
                    "id": 363
                },
                {
                    "name": "Game Art",
                    "url": "/categories/graphics-design/game-art",
                    "id": 365
                },
                {
                    "name": "Graphics for Streamers",
                    "url": "/categories/graphics-design/graphics-for-streamers",
                    "id": 371
                },
                {
                    "name": "Business Cards \u0026 Stationery",
                    "url": "/categories/graphics-design/sample-business-cards-design",
                    "id": 56
                },
                {
                    "name": "Website Design",
                    "url": "/categories/graphics-design/website-design",
                    "id": 151
                },
                {
                    "name": "App Design",
                    "url": "/categories/graphics-design/app-design",
                    "id": 466
                },
                {
                    "name": "UX Design",
                    "url": "/categories/graphics-design/ux-design",
                    "id": 467
                },
                {
                    "name": "Landing Page Design",
                    "url": "/categories/graphics-design/landing-page-design",
                    "id": 468
                },
                {
                    "name": "Resume Design",
                    "url": "/categories/graphics-design/resume-design",
                    "id": 422
                },
                {
                    "name": "Illustration",
                    "url": "/categories/graphics-design/digital-illustration",
                    "id": 50
                },
                {
                    "name": "Children’s Book Illustration",
                    "url": "/categories/graphics-design/children-book-illustration",
                    "id": 536
                },
                {
                    "name": "AI Artists",
                    "url": "/categories/graphics-design/ai-art-prompt",
                    "id": 526
                },
                {
                    "name": "NFT Art",
                    "url": "/categories/graphics-design/nft",
                    "id": 480
                },
                {
                    "name": "Pattern Design",
                    "url": "/categories/graphics-design/pattern-design",
                    "id": 420
                },
                {
                    "name": "Fonts \u0026 Typography",
                    "url": "/categories/graphics-design/fonts-typography",
                    "id": 485
                },
                {
                    "name": "Poster Design",
                    "url": "/categories/graphics-design/poster-design",
                    "id": 359
                },
                {
                    "name": "Brochure Design",
                    "url": "/categories/graphics-design/brochure-design",
                    "id": 358
                },
                {
                    "name": "Flyer Design",
                    "url": "/categories/graphics-design/flyer-design",
                    "id": 55
                },
                {
                    "name": "Book Design",
                    "url": "/categories/graphics-design/book-design",
                    "id": 51
                },
                {
                    "name": "Album Cover Design",
                    "url": "/categories/graphics-design/album-cover-design",
                    "id": 411
                },
                {
                    "name": "Podcast Cover Art",
                    "url": "/categories/graphics-design/podcast-cover-art",
                    "id": 386
                },
                {
                    "name": "Packaging \u0026 Label Design",
                    "url": "/categories/graphics-design/product-packaging-design",
                    "id": 331
                },
                {
                    "name": "Storyboards",
                    "url": "/categories/graphics-design/storyboards",
                    "id": 367
                },
                {
                    "name": "Social Media Design",
                    "url": "/categories/graphics-design/social-media-design",
                    "id": 149
                },
                {
                    "name": "Catalog Design",
                    "url": "/categories/graphics-design/catalog-design",
                    "id": 362
                },
                {
                    "name": "Menu Design",
                    "url": "/categories/graphics-design/menu-design",
                    "id": 360
                },
                {
                    "name": "Invitation Design",
                    "url": "/categories/graphics-design/invitations",
                    "id": 153
                },
                {
                    "name": "Portraits \u0026 Caricatures",
                    "url": "/categories/graphics-design/portraits-and-caricatures",
                    "id": 340
                },
                {
                    "name": "Cartoons \u0026 Comics",
                    "url": "/categories/graphics-design/cartoons-and-comics",
                    "id": 48
                },
                {
                    "name": "Tattoo Design",
                    "url": "/categories/graphics-design/tattoo-design",
                    "id": 385
                },
                {
                    "name": "Signage Design",
                    "url": "/categories/graphics-design/signage-design",
                    "id": 429
                },
                {
                    "name": "Web Banners",
                    "url": "/categories/graphics-design/banner-ads",
                    "id": 148
                },
                {
                    "name": "Image Editing",
                    "url": "/categories/graphics-design/image-editing",
                    "id": 53
                },
                {
                    "name": "Architecture \u0026 Interior Design",
                    "url": "/categories/graphics-design/architectural-design-services",
                    "id": 150
                },
                {
                    "name": "Landscape Design",
                    "url": "/categories/graphics-design/landscape-design",
                    "id": 379
                },
                {
                    "name": "Building Engineering",
                    "url": "/categories/graphics-design/building-engineering",
                    "id": 479
                },
                {
                    "name": "Building Information Modeling",
                    "url": "/categories/graphics-design/bim-services",
                    "id": 378
                },
                {
                    "name": "Character Modeling",
                    "url": "/categories/graphics-design/character-modeling",
                    "id": 366
                },
                {
                    "name": "Industrial \u0026 Product Design",
                    "url": "/categories/graphics-design/product-design-services",
                    "id": 333
                },
                {
                    "name": "Trade Booth Design",
                    "url": "/categories/graphics-design/booth-design",
                    "id": 419
                },
                {
                    "name": "T-Shirts \u0026 Merchandise",
                    "url": "/categories/graphics-design/t-shirts",
                    "id": 154
                },
                {
                    "name": "Fashion Design",
                    "url": "/categories/graphics-design/fashion-design",
                    "id": 441
                },
                {
                    "name": "Jewelry Design",
                    "url": "/categories/graphics-design/jewelry-design",
                    "id": 447
                },
                {
                    "name": "Presentation Design",
                    "url": "/categories/graphics-design/presentations-design",
                    "id": 54
                },
                {
                    "name": "Email Design",
                    "url": "/categories/graphics-design/email-design",
                    "id": 460
                },
                {
                    "name": "Icon Design",
                    "url": "/categories/graphics-design/icon-design",
                    "id": 462
                },
                {
                    "name": "Infographic Design",
                    "url": "/categories/graphics-design/infographics-design",
                    "id": 246
                },
                {
                    "name": "Car Wraps",
                    "url": "/categories/graphics-design/car-wrap-design",
                    "id": 345
                },
                {
                    "name": "Vector Tracing",
                    "url": "/categories/graphics-design/vector-tracing",
                    "id": 155
                },
                {
                    "name": "NSFW Art",
                    "url": "/categories/graphics-design/nsfw-art",
                    "id": 573
                },
                {
                    "name": "Other",
                    "url": "/categories/graphics-design/graphics-services",
                    "id": 122
                },
                {
                    "name": "Twitch Store",
                    "url": "/stores/twitch",
                    "id": 9003
                },
                {
                    "name": "Design Advice",
                    "url": "/categories/graphics-design/design-advice",
                    "id": 488
                }
            ]
        },
        {
            "id": 2,
            "name": "Digital Marketing",
            "subcategories": [
                {
                    "name": "Social Media Marketing",
                    "url": "/categories/online-marketing/social-marketing",
                    "id": 67
                },
                {
                    "name": "Guest Posting",
                    "url": "/categories/online-marketing/guest-posting-services",
                    "id": 495
                },
                {
                    "name": "Search Engine Optimization (SEO)",
                    "url": "/categories/online-marketing/seo-services",
                    "id": 65
                },
                {
                    "name": "Public Relations",
                    "url": "/categories/online-marketing/public-relations",
                    "id": 376
                },
                {
                    "name": "Book \u0026 eBook Marketing",
                    "url": "/categories/online-marketing/book-marketing-services",
                    "id": 415
                },
                {
                    "name": "Podcast Marketing",
                    "url": "/categories/online-marketing/podcast-marketing",
                    "id": 393
                },
                {
                    "name": "Video Marketing",
                    "url": "/categories/online-marketing/online-video-marketing",
                    "id": 69
                },
                {
                    "name": "Other",
                    "url": "/categories/online-marketing/online-marketing-services",
                    "id": 120
                },
                {
                    "name": "Email Marketing",
                    "url": "/categories/online-marketing/email-marketing",
                    "id": 194
                },
                {
                    "name": "Text Message Marketing",
                    "url": "/categories/online-marketing/text-message-marketing",
                    "id": 446
                },
                {
                    "name": "Crowdfunding",
                    "url": "/categories/online-marketing/crowdfunding",
                    "id": 352
                },
                {
                    "name": "Search Engine Marketing (SEM)",
                    "url": "/categories/online-marketing/search-engine-marketing",
                    "id": 200
                },
                {
                    "name": "Display Advertising",
                    "url": "/categories/online-marketing/display-advertising",
                    "id": 444
                },
                {
                    "name": "Web Traffic",
                    "url": "/categories/online-marketing/website-traffic",
                    "id": 68
                },
                {
                    "name": "Web Analytics",
                    "url": "/categories/online-marketing/web-analytics-services",
                    "id": 59
                },
                {
                    "name": "Marketing Advice",
                    "url": "/categories/online-marketing/marketing-tips-and-advice",
                    "id": 486
                },
                {
                    "name": "Influencer Marketing",
                    "url": "/categories/online-marketing/influencer-marketing",
                    "id": 212
                },
                {
                    "name": "Marketing Strategy",
                    "url": "/categories/online-marketing/marketing-strategy",
                    "id": 218
                },
                {
                    "name": "Community Management",
                    "url": "/categories/online-marketing/community-management",
                    "id": 434
                },
                {
                    "name": "Local SEO",
                    "url": "/categories/online-marketing/local-seo-services",
                    "id": 206
                },
                {
                    "name": "E-Commerce Marketing",
                    "url": "/categories/online-marketing/e-commerce-marketing",
                    "id": 325
                },
                {
                    "name": "Affiliate Marketing",
                    "url": "/categories/online-marketing/affiliate-marketing",
                    "id": 440
                },
                {
                    "name": "Mobile App Marketing",
                    "url": "/categories/online-marketing/mobile-app-marketing",
                    "id": 224
                },
                {
                    "name": "Music Promotion",
                    "url": "/categories/online-marketing/music-promotion",
                    "id": 327
                }
            ]
        },
        {
            "id": 5,
            "name": "Writing \u0026 Translation",
            "subcategories": [
                {
                    "name": "Articles \u0026 Blog Posts",
                    "url": "/categories/writing-translation/articles-blogposts",
                    "id": 163
                },
                {
                    "name": "Proofreading \u0026 Editing",
                    "url": "/categories/writing-translation/proofreading-editing",
                    "id": 114
                },
                {
                    "name": "Translation",
                    "url": "/categories/writing-translation/quality-translation-services",
                    "id": 108
                },
                {
                    "name": "Website Content",
                    "url": "/categories/writing-translation/website-content",
                    "id": 335
                },
                {
                    "name": "Product Descriptions",
                    "url": "/categories/writing-translation/product-description",
                    "id": 334
                },
                {
                    "name": "Book \u0026 eBook Writing",
                    "url": "/categories/writing-translation/book-and-ebook-writing",
                    "id": 354
                },
                {
                    "name": "Book Editing",
                    "url": "/categories/writing-translation/book-editing",
                    "id": 430
                },
                {
                    "name": "Resume Writing",
                    "url": "/categories/writing-translation/resume-writing",
                    "id": 112
                },
                {
                    "name": "Brand Voice \u0026 Tone",
                    "url": "/categories/writing-translation/tone-of-voice",
                    "id": 396
                },
                {
                    "name": "UX Writing",
                    "url": "/categories/writing-translation/ux-writing",
                    "id": 381
                },
                {
                    "name": "Email Copy",
                    "url": "/categories/writing-translation/email-copy",
                    "id": 337
                },
                {
                    "name": "Technical Writing",
                    "url": "/categories/writing-translation/technical-writing-services",
                    "id": 341
                },
                {
                    "name": "White Papers",
                    "url": "/categories/writing-translation/white-papers",
                    "id": 382
                },
                {
                    "name": "Localization",
                    "url": "/categories/writing-translation/localization",
                    "id": 538
                },
                {
                    "name": "Content Strategy",
                    "url": "/categories/writing-translation/content-strategy",
                    "id": 539
                },
                {
                    "name": "Custom Writing Prompts",
                    "url": "/categories/writing-translation/custom-writing-prompts",
                    "id": 550
                },
                {
                    "name": "Sales Copy",
                    "url": "/categories/writing-translation/sales-copy",
                    "id": 336
                },
                {
                    "name": "Social Media Copy",
                    "url": "/categories/writing-translation/social-media-copywriting",
                    "id": 395
                },
                {
                    "name": "Podcast Writing",
                    "url": "/categories/writing-translation/podcast",
                    "id": 389
                },
                {
                    "name": "Ad Copy",
                    "url": "/categories/writing-translation/ad-copy",
                    "id": 435
                },
                {
                    "name": "Cover Letters",
                    "url": "/categories/writing-translation/cover-letter-services",
                    "id": 397
                },
                {
                    "name": "Press Releases",
                    "url": "/categories/writing-translation/writing-press-releases",
                    "id": 115
                },
                {
                    "name": "Case Studies",
                    "url": "/categories/writing-translation/case-study-writing",
                    "id": 388
                },
                {
                    "name": "LinkedIn Profiles",
                    "url": "/categories/writing-translation/linkedin-profile-services",
                    "id": 398
                },
                {
                    "name": "Job Descriptions",
                    "url": "/categories/writing-translation/job-description-writing-services",
                    "id": 470
                },
                {
                    "name": "Creative Writing",
                    "url": "/categories/writing-translation/creative-writing",
                    "id": 107
                },
                {
                    "name": "Beta Reading",
                    "url": "/categories/writing-translation/beta-reader",
                    "id": 347
                },
                {
                    "name": "Scriptwriting",
                    "url": "/categories/writing-translation/script-writing",
                    "id": 353
                },
                {
                    "name": "Business Names \u0026 Slogans",
                    "url": "/categories/writing-translation/business-names-and-slogans",
                    "id": 338
                },
                {
                    "name": "eLearning Content Development",
                    "url": "/categories/writing-translation/elearning-content-development",
                    "id": 436
                },
                {
                    "name": "Speechwriting",
                    "url": "/categories/writing-translation/speech-writing",
                    "id": 355
                },
                {
                    "name": "Grant Writing",
                    "url": "/categories/writing-translation/grant-writing-services",
                    "id": 404
                },
                {
                    "name": "Transcription",
                    "url": "/categories/writing-translation/transcription",
                    "id": 109
                },
                {
                    "name": "Research \u0026 Summaries",
                    "url": "/categories/writing-translation/research-summaries",
                    "id": 169
                },
                {
                    "name": "Other",
                    "url": "/categories/writing-translation/writing-services",
                    "id": 121
                },
                {
                    "name": "Writing Advice",
                    "url": "/categories/writing-translation/writing-tips-and-advice",
                    "id": 490
                }
            ]
        },
        {
            "id": 20,
            "name": "Video \u0026 Animation",
            "subcategories": [
                {
                    "name": "Animated Explainers",
                    "url": "/categories/video-animation/animated-explainer-videos",
                    "id": 228
                },
                {
                    "name": "Video Editing",
                    "url": "/categories/video-animation/video-editing",
                    "id": 99
                },
                {
                    "name": "Video Ads \u0026 Commercials",
                    "url": "/categories/video-animation/short-video-ads",
                    "id": 329
                },
                {
                    "name": "Animated GIFs",
                    "url": "/categories/video-animation/animated-gifs",
                    "id": 356
                },
                {
                    "name": "Logo Animation",
                    "url": "/categories/video-animation/logo-animation-services",
                    "id": 104
                },
                {
                    "name": "Intro \u0026 Outro Videos",
                    "url": "/categories/video-animation/video-intro-and-outro",
                    "id": 343
                },
                {
                    "name": "Character Animation",
                    "url": "/categories/video-animation/animated-characters-modeling",
                    "id": 235
                },
                {
                    "name": "3D Product Animation",
                    "url": "/categories/video-animation/3d-product-animation",
                    "id": 369
                },
                {
                    "name": "Social Media Videos",
                    "url": "/categories/video-animation/social-media-videos",
                    "id": 482
                },
                {
                    "name": "Music Videos",
                    "url": "/categories/video-animation/music-videos",
                    "id": 234
                },
                {
                    "name": "NFT Animation",
                    "url": "/categories/video-animation/nft-animation",
                    "id": 484
                },
                {
                    "name": "Animation for Kids",
                    "url": "/categories/video-animation/animation-for-kids",
                    "id": 350
                },
                {
                    "name": "Video Art",
                    "url": "/categories/video-animation/video-art",
                    "id": 562
                },
                {
                    "name": "Animation for Streamers",
                    "url": "/categories/video-animation/animation-for-streamers",
                    "id": 368
                },
                {
                    "name": "Live Action Explainers",
                    "url": "/categories/video-animation/live-action-videos",
                    "id": 330
                },
                {
                    "name": "Filmed Video Production",
                    "url": "/categories/video-animation/filmed-video-production",
                    "id": 499
                },
                {
                    "name": "Videographers",
                    "url": "/categories/video-animation/videographers",
                    "id": 497
                },
                {
                    "name": "E-Commerce Product Videos",
                    "url": "/categories/video-animation/ecommerce-product-videos",
                    "id": 459
                },
                {
                    "name": "Spokespersons Videos",
                    "url": "/categories/video-animation/buy-spokesperson-video",
                    "id": 101
                },
                {
                    "name": "Subtitles \u0026 Captions",
                    "url": "/categories/video-animation/subtitles-captions",
                    "id": 384
                },
                {
                    "name": "Visual Effects",
                    "url": "/categories/video-animation/visual-effects",
                    "id": 344
                },
                {
                    "name": "Lottie \u0026 Web Animation",
                    "url": "/categories/video-animation/website-animation",
                    "id": 445
                },
                {
                    "name": "eLearning Video Production",
                    "url": "/categories/video-animation/elearning-video-production",
                    "id": 426
                },
                {
                    "name": "Article to Video",
                    "url": "/categories/video-animation/article-to-video",
                    "id": 421
                },
                {
                    "name": "UGC Videos",
                    "url": "/categories/video-animation/ugc-videos",
                    "id": 549
                },
                {
                    "name": "Screencasting Videos",
                    "url": "/categories/video-animation/screencasting-videos",
                    "id": 402
                },
                {
                    "name": "Rigging",
                    "url": "/categories/video-animation/rigging",
                    "id": 518
                },
                {
                    "name": "Corporate Videos",
                    "url": "/categories/video-animation/corporate-videos",
                    "id": 473
                },
                {
                    "name": "Crowdfunding Videos",
                    "url": "/categories/video-animation/crowdfunding-videos",
                    "id": 472
                },
                {
                    "name": "Slideshow Videos",
                    "url": "/categories/video-animation/slideshow-videos",
                    "id": 249
                },
                {
                    "name": "Video Templates Editing",
                    "url": "/categories/video-animation/video-templates-editing",
                    "id": 474
                },
                {
                    "name": "App \u0026 Website Previews",
                    "url": "/categories/video-animation/app-website-previews",
                    "id": 399
                },
                {
                    "name": "Book Trailers",
                    "url": "/categories/video-animation/book-trailers",
                    "id": 400
                },
                {
                    "name": "Meditation Videos",
                    "url": "/categories/video-animation/meditation-videos",
                    "id": 476
                },
                {
                    "name": "Real Estate Promos",
                    "url": "/categories/video-animation/real-estate-promos",
                    "id": 401
                },
                {
                    "name": "Game Trailers",
                    "url": "/categories/video-animation/game-trailers",
                    "id": 372
                },
                {
                    "name": "Video Advice",
                    "url": "/categories/video-animation/video-advice",
                    "id": 487
                },
                {
                    "name": "Other",
                    "url": "/categories/video-animation/video-services",
                    "id": 117
                }
            ]
        },
        {
            "id": 12,
            "name": "Music \u0026 Audio",
            "subcategories": [
                {
                    "name": "Voice Over",
                    "url": "/categories/music-audio/voice-overs",
                    "id": 16
                },
                {
                    "name": "Mixing \u0026 Mastering",
                    "url": "/categories/music-audio/mixing-mastering",
                    "id": 10
                },
                {
                    "name": "Producers \u0026 Composers",
                    "url": "/categories/music-audio/producers-composers",
                    "id": 157
                },
                {
                    "name": "Singers \u0026 Vocalists",
                    "url": "/categories/music-audio/singers-vocalists",
                    "id": 158
                },
                {
                    "name": "Session Musicians",
                    "url": "/categories/music-audio/session-musicians",
                    "id": 156
                },
                {
                    "name": "Songwriters",
                    "url": "/categories/music-audio/songwriters",
                    "id": 392
                },
                {
                    "name": "Podcast Production",
                    "url": "/categories/music-audio/podcast-editing",
                    "id": 390
                },
                {
                    "name": "Beat Making",
                    "url": "/categories/music-audio/beat-making",
                    "id": 432
                },
                {
                    "name": "Sound Design",
                    "url": "/categories/music-audio/sound-design",
                    "id": 17
                },
                {
                    "name": "Audiobook Production",
                    "url": "/categories/music-audio/audiobook-production",
                    "id": 391
                },
                {
                    "name": "Online Music Lessons",
                    "url": "/categories/music-audio/online-music-lessons",
                    "id": 412
                },
                {
                    "name": "Audio Editing",
                    "url": "/categories/music-audio/audio-editing",
                    "id": 346
                },
                {
                    "name": "Audio Ads Production",
                    "url": "/categories/music-audio/audio-ads-production",
                    "id": 406
                },
                {
                    "name": "Music Transcription",
                    "url": "/categories/music-audio/music-transcription",
                    "id": 380
                },
                {
                    "name": "Vocal Tuning",
                    "url": "/categories/music-audio/vocal-tuning",
                    "id": 349
                },
                {
                    "name": "DJ Drops \u0026 Tags",
                    "url": "/categories/music-audio/dj-drops-tags",
                    "id": 405
                },
                {
                    "name": "DJ Mixing",
                    "url": "/categories/music-audio/dj-mixing",
                    "id": 437
                },
                {
                    "name": "Remixing \u0026 Mashups",
                    "url": "/categories/music-audio/remixing-mashups",
                    "id": 438
                },
                {
                    "name": "Synth Presets",
                    "url": "/categories/music-audio/synth-presets",
                    "id": 450
                },
                {
                    "name": "Meditation Music",
                    "url": "/categories/music-audio/meditation-music",
                    "id": 463
                },
                {
                    "name": "Jingles \u0026 Intros",
                    "url": "/categories/music-audio/jingles-intros",
                    "id": 11
                },
                {
                    "name": "Audio Logo \u0026 Sonic Branding",
                    "url": "/categories/music-audio/audio-logo-sonic-branding",
                    "id": 478
                },
                {
                    "name": "Music \u0026 Audio Advice",
                    "url": "/categories/music-audio/advice",
                    "id": 489
                },
                {
                    "name": "Voice Synthesis \u0026 AI",
                    "url": "/categories/music-audio/voice-synthesis-ai",
                    "id": 535
                },
                {
                    "name": "Other",
                    "url": "/categories/music-audio/music-audio-services",
                    "id": 20
                }
            ]
        },
        {
            "id": 10,
            "name": "Programming \u0026 Tech",
            "subcategories": [
                {
                    "name": "Website Development",
                    "url": "/categories/programming-tech/website-development",
                    "id": 514
                },
                {
                    "name": "Website Maintenance",
                    "url": "/categories/programming-tech/website-maintenance",
                    "id": 515
                },
                {
                    "name": "Game Development",
                    "url": "/categories/programming-tech/game-development",
                    "id": 364
                },
                {
                    "name": "Development for Streamers",
                    "url": "/categories/programming-tech/development-for-streamers",
                    "id": 425
                },
                {
                    "name": "Software Development",
                    "url": "/categories/programming-tech/software-development",
                    "id": 140
                },
                {
                    "name": "Mobile App Development",
                    "url": "/categories/programming-tech/mobile-app-services",
                    "id": 141
                },
                {
                    "name": "AI Development",
                    "url": "/categories/programming-tech/ai-coding",
                    "id": 520
                },
                {
                    "name": "Blockchain \u0026 Cryptocurrency",
                    "url": "/categories/programming-tech/blockchain-cryptocurrency",
                    "id": 464
                },
                {
                    "name": "NFT Development",
                    "url": "/categories/programming-tech/nft-development",
                    "id": 483
                },
                {
                    "name": "Electronics Engineering",
                    "url": "/categories/programming-tech/electronics-engineering",
                    "id": 477
                },
                {
                    "name": "DevOps \u0026 Cloud",
                    "url": "/categories/programming-tech/devops-cloud",
                    "id": 501
                },
                {
                    "name": "Cybersecurity",
                    "url": "/categories/programming-tech/cybersecurity-data-protection",
                    "id": 394
                },
                {
                    "name": "Support \u0026 IT",
                    "url": "/categories/programming-tech/support-it-services",
                    "id": 146
                },
                {
                    "name": "Online Coding Lessons",
                    "url": "/categories/programming-tech/online-coding-lessons",
                    "id": 416
                },
                {
                    "name": "Chatbot Development",
                    "url": "/categories/programming-tech/chatbots",
                    "id": 328
                },
                {
                    "name": "Convert Files",
                    "url": "/categories/programming-tech/file-conversion-services",
                    "id": 147
                },
                {
                    "name": "User Testing",
                    "url": "/categories/programming-tech/user-testing-services",
                    "id": 144
                },
                {
                    "name": "QA \u0026 Review",
                    "url": "/categories/programming-tech/qa-services",
                    "id": 145
                },
                {
                    "name": "Other",
                    "url": "/categories/programming-tech/programming-services",
                    "id": 97
                },
                {
                    "name": "Trading Bots Development",
                    "url": "/categories/programming-tech/trading-bots-development",
                    "id": 533
                }
            ]
        },
        {
            "id": 23,
            "name": "Data",
            "subcategories": [
                {
                    "name": "Data Governance \u0026 Protection",
                    "url": "/categories/data/data-governance",
                    "id": 543
                },
                {
                    "name": "Data Mining \u0026 Scraping",
                    "url": "/categories/data/data-mining",
                    "id": 542
                },
                {
                    "name": "Data Annotation",
                    "url": "/categories/data/data-labeling-annotation",
                    "id": 541
                },
                {
                    "name": "Data Formatting \u0026 Cleaning",
                    "url": "/categories/data/data-formatting",
                    "id": 540
                },
                {
                    "name": "Databases",
                    "url": "/categories/data/databases",
                    "id": 451
                },
                {
                    "name": "Data Processing",
                    "url": "/categories/data/data-processing",
                    "id": 452
                },
                {
                    "name": "Data Engineering",
                    "url": "/categories/data/data-engineering",
                    "id": 471
                },
                {
                    "name": "Data Analytics",
                    "url": "/categories/data/data-analytics",
                    "id": 453
                },
                {
                    "name": "Data Visualization",
                    "url": "/categories/data/data-visualization",
                    "id": 454
                },
                {
                    "name": "Data Science \u0026 ML",
                    "url": "/categories/data/data-science",
                    "id": 455
                },
                {
                    "name": "Data Entry",
                    "url": "/categories/data/data-entry",
                    "id": 456
                },
                {
                    "name": "Other",
                    "url": "/categories/data/data-services",
                    "id": 457
                }
            ]
        },
        {
            "id": 8,
            "name": "Business",
            "subcategories": [
                {
                    "name": "ERP Management",
                    "url": "/categories/business/erp-services",
                    "id": 494
                },
                {
                    "name": "CRM Management",
                    "url": "/categories/business/crm-services",
                    "id": 493
                },
                {
                    "name": "Sales",
                    "url": "/categories/business/sales",
                    "id": 469
                },
                {
                    "name": "Virtual Assistant",
                    "url": "/categories/business/virtual-assistant-services",
                    "id": 25
                },
                {
                    "name": "Market Research",
                    "url": "/categories/business/market-research-reports",
                    "id": 23
                },
                {
                    "name": "Business Plans",
                    "url": "/categories/business/business-plans",
                    "id": 21
                },
                {
                    "name": "Customer Care",
                    "url": "/categories/business/customer-care",
                    "id": 449
                },
                {
                    "name": "Project Management",
                    "url": "/categories/business/project-management",
                    "id": 408
                },
                {
                    "name": "HR Consulting",
                    "url": "/categories/business/hr-consulting",
                    "id": 409
                },
                {
                    "name": "E-Commerce Management",
                    "url": "/categories/business/ecommerce-management",
                    "id": 423
                },
                {
                    "name": "Product Management",
                    "url": "/categories/business/product-management",
                    "id": 568
                },
                {
                    "name": "Event Management",
                    "url": "/categories/business/event-management",
                    "id": 475
                },
                {
                    "name": "Legal Consulting",
                    "url": "/categories/business/legal-consulting-services",
                    "id": 30
                },
                {
                    "name": "Financial Consulting",
                    "url": "/categories/business/financial-consulting-services",
                    "id": 28
                },
                {
                    "name": "Business Consulting",
                    "url": "/categories/business/business-tips",
                    "id": 26
                },
                {
                    "name": "Supply Chain Management",
                    "url": "/categories/business/supply-chain-management",
                    "id": 442
                },
                {
                    "name": "Presentations",
                    "url": "/categories/business/online-presentations",
                    "id": 24
                },
                {
                    "name": "Game Concept Design",
                    "url": "/categories/business/game-concept",
                    "id": 443
                },
                {
                    "name": "Other",
                    "url": "/categories/business/business-services",
                    "id": 31
                },
                {
                    "name": "Fact Checking",
                    "url": "/categories/business/fact-checking",
                    "id": 525
                },
                {
                    "name": "AI Consulting",
                    "url": "/categories/business/ai-consulting",
                    "id": 566
                }
            ]
        },
        {
            "id": 7,
            "name": "Lifestyle",
            "subcategories": [
                {
                    "name": "Online Tutoring",
                    "url": "/categories/lifestyle/online-tutoring",
                    "id": 77
                },
                {
                    "name": "Language Lessons",
                    "url": "/categories/lifestyle/language-lessons",
                    "id": 544
                },
                {
                    "name": "Life Coaching",
                    "url": "/categories/lifestyle/life-coaching",
                    "id": 73
                },
                {
                    "name": "Career Counseling",
                    "url": "/categories/lifestyle/career-counseling",
                    "id": 517
                },
                {
                    "name": "Gaming",
                    "url": "/categories/lifestyle/gaming",
                    "id": 279
                },
                {
                    "name": "Generative AI Lessons",
                    "url": "/categories/lifestyle/generative-ai-lessons",
                    "id": 547
                },
                {
                    "name": "Arts \u0026 Crafts",
                    "url": "/categories/lifestyle/arts-crafts-gifts",
                    "id": 310
                },
                {
                    "name": "Embroidery Digitizing",
                    "url": "/categories/lifestyle/embroidery-digitizing",
                    "id": 567
                },
                {
                    "name": "Astrology \u0026 Psychics",
                    "url": "/categories/lifestyle/astrology-psychics",
                    "id": 78
                },
                {
                    "name": "Modeling \u0026 Acting",
                    "url": "/categories/lifestyle/modeling-acting",
                    "id": 458
                },
                {
                    "name": "Fitness",
                    "url": "/categories/lifestyle/fitness",
                    "id": 522
                },
                {
                    "name": "Nutrition",
                    "url": "/categories/lifestyle/nutrition",
                    "id": 523
                },
                {
                    "name": "Wellness",
                    "url": "/categories/lifestyle/wellness",
                    "id": 75
                },
                {
                    "name": "Traveling",
                    "url": "/categories/lifestyle/traveling",
                    "id": 127
                },
                {
                    "name": "Puzzle \u0026 Game Creation",
                    "url": "/categories/lifestyle/puzzle-game-creation",
                    "id": 500
                },
                {
                    "name": "Styling \u0026 Beauty",
                    "url": "/categories/lifestyle/personal-stylists",
                    "id": 431
                },
                {
                    "name": "Trend Forecasting",
                    "url": "/categories/lifestyle/trend-forecasting",
                    "id": 531
                },
                {
                    "name": "Cosmetics Formulation",
                    "url": "/categories/lifestyle/formulation",
                    "id": 524
                },
                {
                    "name": "Family \u0026 Genealogy",
                    "url": "/categories/lifestyle/family-genealogy",
                    "id": 287
                },
                {
                    "name": "Greeting Cards \u0026 Videos",
                    "url": "/categories/lifestyle/greeting-cards-videos-online",
                    "id": 321
                },
                {
                    "name": "Collectibles",
                    "url": "/categories/lifestyle/collectibles",
                    "id": 281
                },
                {
                    "name": "Other",
                    "url": "/categories/lifestyle/lifestyle-services",
                    "id": 123
                }
            ]
        },
        {
            "id": 25,
            "name": "Photography",
            "subcategories": [
                {
                    "name": "Product Photographers",
                    "url": "/categories/photography/product-photographers",
                    "id": 503
                },
                {
                    "name": "Portrait Photographers",
                    "url": "/categories/photography/portrait-photographers",
                    "id": 504
                },
                {
                    "name": "Lifestyle \u0026 Fashion Photographers",
                    "url": "/categories/photography/lifestyle-fashion-photographers",
                    "id": 505
                },
                {
                    "name": "Real Estate Photographers",
                    "url": "/categories/photography/real-estate-photographers",
                    "id": 506
                },
                {
                    "name": "Event Photographers",
                    "url": "/categories/photography/event-photographers",
                    "id": 507
                },
                {
                    "name": "Food Photographers",
                    "url": "/categories/photography/food-photographers",
                    "id": 508
                },
                {
                    "name": "Scenic Photographers",
                    "url": "/categories/photography/scenic-photographers",
                    "id": 551
                },
                {
                    "name": "Photography Advice",
                    "url": "/categories/photography/photography-advice",
                    "id": 510
                },
                {
                    "name": "Other",
                    "url": "/categories/photography/photography-services",
                    "id": 511
                }
            ]
        },
        {
            "id": 28,
            "name": "End-to-End Projects",
            "subcategories": [
                {
                    "name": "Build a Website",
                    "url": "/categories/end-to-end-projects/all-in-one-business-websites",
                    "id": 527
                },
                {
                    "name": "Develop a Brand Identity",
                    "url": "/categories/end-to-end-projects/branding-bundles",
                    "id": 528
                },
                {
                    "name": "Digital Marketing Management",
                    "url": "/categories/end-to-end-projects/digital-marketing-agencies",
                    "id": 529
                },
                {
                    "name": "Produce a Video",
                    "url": "/categories/end-to-end-projects/video-production",
                    "id": 553
                }
            ]
        }
    ]
}